362122 417700
673181 551853
231025 269458
237118 525748
45967 649742
610616 375480
233396 242011
162286 806842
705284 133252
829768 179100
55227 142755
600915 758215
48359 140025
933139 661860
531280 737573
231234 181780
689779 770681
82726 524016
149802 804970
949158 294624
632882 140419
225123 234156
519434 32191
497564 408910
717100 453080
677569 586832
359294 42433
319417 730875
369064 371169
23131 375888
651894 396327
720143 996852
228584 812705
499624 520114
840538 726488
567174 718200
771057 745910
545667 862027
169229 278213
322107 851496
483315 228810
338933 681287
817494 524135
78826 800142
293404 984072
53524 466781
956236 629104
39482 115100
267437 246134
305386 929477
110168 826103
742185 761866
34331 8020
531084 507341
588399 785600
805544 978970
283095 531739
134637 752727
303650 896655
717367 252138
90078 450265
177623 799061
440879 462788
816119 373602
158016 512057
339807 467321
985421 185145
809054 630678
185810 329742
844448 964006
152677 102126
631948 881060
275310 749373
8311 451884
293049 591297
62161 95187
353180 989385
678431 912966
224075 982203
765510 295376
126637 83764
99472 350276
816215 612591
538372 208379
98844 302955
138325 158017
104675 736139
926753 599020
765800 917872
344493 759897
9383 453208
573338 834610
71280 183637
827140 211152
263237 586340
977125 999209
280523 307074
218175 271783
254686 41280
433603 810753
956758 500975
899208 257390
684424 297877
4023 156838
849843 749185
661303 178220
743458 267305
910127 968929
522224 361936
486746 568661
630576 923009
622614 395958
956519 264750
915344 431002
755739 307812
415700 226964
328352 792715
655559 441302
529652 236533
104984 527328
342516 627658
931842 316498
760511 361365
109029 328107
874442 749968
711892 546623
904057 86990
941880 906867
216834 433153
656157 180125
423859 730497
482182 696555
852139 61328
477705 485837
909539 906700
464848 396758
969293 207545
70166 628474
951576 827335
937666 59347
662558 730011
983018 701845
513941 240914
595304 547302
504465 65931
828505 45492
724212 567681
228232 451714
520947 618746
6427 385556
414279 999681
781998 983377
316279 69592
831490 269838
655627 186745
344547 30290
174198 618577
306957 934623
755770 484059
309094 23594
784508 984929
770731 99620
805731 212316
932463 608286
848582 129644
323359 562983
627298 386787
979771 646252
442012 800330
497815 834682
211608 293391
576857 661808
168664 678076
401108 761565
940841 1032
989400 327504
772578 188120
705481 335672
124770 452554
801479 952553
347819 212845
678213 957897
339406 374971
380457 646506
208371 548818
220469 635334
94279 234398
759233 242613
510333 472694
118133 476350
884319 668840
170991 515355
558680 246565
124741 370166
616694 817800
955441 41020
334989 512476
222898 593678
857974 712629
792041 918416
355730 769728
508239 642155
552486 973146
283546 93034
39492 262348
8439 566593
